tutorial-5/src/vga_top_tb.vcd
$date
	Sat May 08 01:22:57 2021
$end
$version
	Icarus Verilog
$end
$timescale
	1ns
$end
$scope module vga_top_tb $end
$var wire 1 ! o_VGA_VSync $end
$var wire 1 " o_VGA_HSync $end
$var wire 3 # R [2:0] $end
$var wire 3 $ G [2:0] $end
$var wire 3 % B [2:0] $end
$var reg 1 & clk $end
$var reg 1 ' rst $end
$scope module UUT $end
$var wire 3 ( B [2:0] $end
$var wire 3 ) G [2:0] $end
$var wire 3 * R [2:0] $end
$var wire 1 & clk $end
$var wire 1 " o_VGA_HSync $end
$var wire 1 ! o_VGA_VSync $end
$var wire 1 ' rst $end
$var wire 1 + w_VSync_TP $end
$var wire 1 , w_VSync_Start $end
$var wire 1 - w_VSync_Porch $end
$var wire 3 . w_Red_Video_TP [2:0] $end
$var wire 3 / w_Red_Video_Porch [2:0] $end
$var wire 1 0 w_HSync_TP $end
$var wire 1 1 w_HSync_Start $end
$var wire 1 2 w_HSync_Porch $end
$var wire 3 3 w_Grn_Video_TP [2:0] $end
$var wire 3 4 w_Grn_Video_Porch [2:0] $end
$var wire 3 5 w_Blu_Video_TP [2:0] $end
$var wire 3 6 w_Blu_Video_Porch [2:0] $end
$scope module Test_Pattern_Gen_Inst $end
$var wire 1 & i_Clk $end
$var wire 4 7 i_Pattern [3:0] $end
$var wire 7 8 w_Bar_Width [6:0] $end
$var wire 1 9 w_VSync $end
$var wire 10 : w_Row_Count [9:0] $end
$var wire 1 ; w_HSync $end
$var wire 10 < w_Col_Count [9:0] $end
$var wire 3 = w_Bar_Select [2:0] $end
$var wire 1 , i_VSync $end
$var wire 1 1 i_HSync $end
$var reg 3 > o_Blu_Video [2:0] $end
$var reg 3 ? o_Grn_Video [2:0] $end
$var reg 1 0 o_HSync $end
$var reg 3 @ o_Red_Video [2:0] $end
$var reg 1 + o_VSync $end
$scope module UUT $end
$var wire 1 & i_Clk $end
$var wire 1 A w_Frame_Start $end
$var wire 1 , i_VSync $end
$var wire 1 1 i_HSync $end
$var reg 10 B o_Col_Count [9:0] $end
$var reg 1 ; o_HSync $end
$var reg 10 C o_Row_Count [9:0] $end
$var reg 1 9 o_VSync $end
$upscope $end
$upscope $end
$scope module VGA_Sync_Porch_Inst $end
$var wire 3 D i_Blu_Video [2:0] $end
$var wire 1 & i_Clk $end
$var wire 3 E i_Grn_Video [2:0] $end
$var wire 1 0 i_HSync $end
$var wire 3 F i_Red_Video [2:0] $end
$var wire 1 + i_VSync $end
$var wire 1 G w_VSync $end
$var wire 10 H w_Row_Count [9:0] $end
$var wire 1 I w_HSync $end
$var wire 10 J w_Col_Count [9:0] $end
$var reg 3 K o_Blu_Video [2:0] $end
$var reg 3 L o_Grn_Video [2:0] $end
$var reg 1 2 o_HSync $end
$var reg 3 M o_Red_Video [2:0] $end
$var reg 1 - o_VSync $end
$var reg 3 N r_Blu_Video [2:0] $end
$var reg 3 O r_Grn_Video [2:0] $end
$var reg 3 P r_Red_Video [2:0] $end
$scope module UUT $end
$var wire 1 & i_Clk $end
$var wire 1 0 i_HSync $end
$var wire 1 + i_VSync $end
$var wire 1 Q w_Frame_Start $end
$var reg 10 R o_Col_Count [9:0] $end
$var reg 1 I o_HSync $end
$var reg 10 S o_Row_Count [9:0] $end
$var reg 1 G o_VSync $end
$upscope $end
$upscope $end
$scope module VGA_Sync_Pulses_Inst $end
$var wire 1 & i_Clk $end
$var wire 1 , o_VSync $end
$var wire 1 1 o_HSync $end
$var reg 12 T o_Col_Count [11:0] $end
$var reg 12 U o_Row_Count [11:0] $end
$upscope $end
$upscope $end
$upscope $end
$enddefinitions $end
#0
$dumpvars
b0 U
b0 T
b0 S
b0 R
0Q
b0 P
b0 O
b0 N
bx M
bx L
bx K
b0 J
0I
b0 H
0G
bx F
bx E
bx D
b0 C
b0 B
1A
bx @
bx ?
bx >
b0 =
b0 <
0;
b0 :
09
b1 8
b1 7
bx 6
bx 5
bx 4
bx 3
x2
11
00
bx /
bx .
x-
1,
0+
bx *
bx )
bx (
1'
0&
bx %
bx $
bx #
x"
x!
$end
#20
0A
b1 T
1;
19
b0 5
b0 >
b0 D
b0 3
b0 ?
b0 E
b111 .
b111 @
b111 F
b1 J
b1 R
1!
1-
1"
12
b0 %
b0 (
b0 6
b0 K
b0 $
b0 )
b0 4
b0 L
b0 #
b0 *
b0 /
b0 M
bx N
bx O
bx P
1&
#40
0&
#60
b1 =
1Q
bx %
bx (
bx 6
bx K
bx $
bx )
bx 4
bx L
bx #
bx *
bx /
bx M
b0 N
b0 O
b111 P
b10 J
b10 R
10
1+
b1 <
b1 B
b10 T
1&
#80
0&
#100
b10 =
0Q
b11 T
b10 <
b10 B
1I
1G
b0 J
b0 R
b0 %
b0 (
b0 6
b0 K
b0 $
b0 )
b0 4
b0 L
b111 #
b111 *
b111 /
b111 M
1&
#120
0&
#140
b11 =
b1 J
b1 R
b11 <
b11 B
b100 T
1&
#160
0&
#180
b100 =
b101 T
b100 <
b100 B
b10 J
b10 R
1&
#200
0&
#220
b101 =
b11 J
b11 R
b101 <
b101 B
b110 T
1&
#240
0&
#260
b110 =
b111 T
b110 <
b110 B
b100 J
b100 R
1&
#280
0&
#300
b111 =
01
b101 J
b101 R
b111 <
b111 B
b1000 T
1&
#320
0&
#340
b1001 T
0;
b1000 <
b1000 B
b110 J
b110 R
1&
#360
0&
#380
11
b111 J
b111 R
b0 .
b0 @
b0 F
00
b1001 <
b1001 B
b1 U
b0 T
1&
#400
0&
#420
b0 =
b1 T
1;
b0 <
b0 B
b1 :
b1 C
0I
b1000 J
b1000 R
b0 P
1&
#440
0&
#460
b1 =
b0 #
b0 *
b0 /
b0 M
b1001 J
b1001 R
b111 .
b111 @
b111 F
10
b1 <
b1 B
b10 T
1&
#480
0&
#500
b10 =
b11 T
b10 <
b10 B
1I
b0 J
b0 R
b1 H
b1 S
b111 P
1&
#520
0&
#540
b11 =
b111 #
b111 *
b111 /
b111 M
b1 J
b1 R
b11 <
b11 B
b100 T
1&
#560
0&
#580
b100 =
b101 T
b100 <
b100 B
b10 J
b10 R
1&
#600
0&
#620
b101 =
b11 J
b11 R
b101 <
b101 B
b110 T
1&
#640
0&
#660
b110 =
b111 T
b110 <
b110 B
b100 J
b100 R
1&
#680
0&
#700
b111 =
01
b101 J
b101 R
b111 <
b111 B
b1000 T
1&
#720
0&
#740
b1001 T
0;
b1000 <
b1000 B
b110 J
b110 R
1&
#760
0&
#780
11
b111 J
b111 R
b0 .
b0 @
b0 F
00
b1001 <
b1001 B
b10 U
b0 T
1&
#800
0&
#820
b0 =
b1 T
1;
b0 <
b0 B
b10 :
b10 C
0I
b1000 J
b1000 R
b0 P
1&
#840
0&
#860
b1 =
b0 #
b0 *
b0 /
b0 M
b1001 J
b1001 R
b111 .
b111 @
b111 F
10
b1 <
b1 B
b10 T
1&
#880
0&
#900
b10 =
b11 T
b10 <
b10 B
1I
b0 J
b0 R
b10 H
b10 S
b111 P
1&
#920
0&
#940
b11 =
b111 #
b111 *
b111 /
b111 M
b1 J
b1 R
b11 <
b11 B
b100 T
1&
#960
0&
#980
b100 =
b101 T
b100 <
b100 B
b10 J
b10 R
1&
#1000
0&
#1020
b101 =
b11 J
b11 R
b101 <
b101 B
b110 T
1&
#1040
0&
#1060
b110 =
b111 T
b110 <
b110 B
b100 J
b100 R
1&
#1080
0&
#1100
b111 =
01
b101 J
b101 R
b111 <
b111 B
b1000 T
1&
#1120
0&
#1140
b1001 T
0;
b1000 <
b1000 B
b110 J
b110 R
1&
#1160
0&
#1180
11
b111 J
b111 R
b0 .
b0 @
b0 F
00
b1001 <
b1001 B
b11 U
b0 T
1&
#1200
0&
#1220
b0 =
b1 T
1;
b0 <
b0 B
b11 :
b11 C
0I
b1000 J
b1000 R
b0 P
1&
#1240
0&
#1260
b1 =
b0 #
b0 *
b0 /
b0 M
b1001 J
b1001 R
b111 .
b111 @
b111 F
10
b1 <
b1 B
b10 T
1&
#1280
0&
#1300
b10 =
b11 T
b10 <
b10 B
1I
b0 J
b0 R
b11 H
b11 S
b111 P
1&
#1320
0&
#1340
b11 =
b111 #
b111 *
b111 /
b111 M
b1 J
b1 R
b11 <
b11 B
b100 T
1&
#1360
0&
#1380
b100 =
b101 T
b100 <
b100 B
b10 J
b10 R
1&
#1400
0&
#1420
b101 =
b11 J
b11 R
b101 <
b101 B
b110 T
1&
#1440
0&
#1460
b110 =
b111 T
b110 <
b110 B
b100 J
b100 R
1&
#1480
0&
#1500
b111 =
01
b101 J
b101 R
b111 <
b111 B
b1000 T
1&
#1520
0&
#1540
b1001 T
0;
b1000 <
b1000 B
b110 J
b110 R
1&
#1560
0&
#1580
0,
11
b111 J
b111 R
b0 .
b0 @
b0 F
00
b1001 <
b1001 B
b100 U
b0 T
1&
#1600
0&
#1620
b0 =
b1 T
1;
09
b0 <
b0 B
b100 :
b100 C
0I
b1000 J
b1000 R
b0 P
1&
#1640
0&
#1660
b1 =
b0 #
b0 *
b0 /
b0 M
b1001 J
b1001 R
10
0+
b1 <
b1 B
b10 T
1&
#1680
0&
#1700
b10 =
b11 T
b10 <
b10 B
1I
0G
b0 J
b0 R
b100 H
b100 S
1&
#1720
0&
#1740
b11 =
b1 J
b1 R
b11 <
b11 B
b100 T
1&
#1760
0&
#1780
b100 =
b101 T
b100 <
b100 B
b10 J
b10 R
1&
#1800
0&
#1820
b101 =
b11 J
b11 R
b101 <
b101 B
b110 T
1&
#1840
0&
#1860
b110 =
b111 T
b110 <
b110 B
b100 J
b100 R
1&
#1880
0&
#1900
b111 =
01
b101 J
b101 R
b111 <
b111 B
b1000 T
1&
#1920
0&
#1940
b1001 T
0;
b1000 <
b1000 B
b110 J
b110 R
1&
#1960
0&
#1980
11
b111 J
b111 R
00
b1001 <
b1001 B
b101 U
b0 T
1&
#2000
0&
#2020
b0 =
b1 T
1;
b0 <
b0 B
b101 :
b101 C
0I
b1000 J
b1000 R
1&
#2040
0&
#2060
b1 =
b1001 J
b1001 R
10
b1 <
b1 B
b10 T
1&
#2080
0&
#2100
b10 =
b11 T
b10 <
b10 B
1I
b0 J
b0 R
b101 H
b101 S
1&
#2120
0&
#2140
b11 =
b1 J
b1 R
b11 <
b11 B
b100 T
1&
#2160
0&
#2180
b100 =
b101 T
b100 <
b100 B
b10 J
b10 R
1&
#2200
0&
#2220
b101 =
b11 J
b11 R
b101 <
b101 B
b110 T
1&
#2240
0&
#2260
b110 =
b111 T
b110 <
b110 B
b100 J
b100 R
1&
#2280
0&
#2300
b111 =
01
b101 J
b101 R
b111 <
b111 B
b1000 T
1&
#2320
0&
#2340
b1001 T
0;
b1000 <
b1000 B
b110 J
b110 R
1&
#2360
0&
#2380
1A
1,
11
b111 J
b111 R
00
b1001 <
b1001 B
b0 U
b0 T
1&
#2400
0&
#2420
0A
b0 =
b1 T
1;
19
b0 :
b0 C
b0 <
b0 B
0I
b1000 J
b1000 R
1&
#2440
0&
#2460
b1 =
1Q
b1001 J
b1001 R
b111 .
b111 @
b111 F
10
1+
b1 <
b1 B
b10 T
1&
#2480
0&
#2500
b10 =
0Q
b11 T
b10 <
b10 B
1I
1G
b0 H
b0 S
b0 J
b0 R
b111 P
1&
#2520
0&
#2540
b11 =
b111 #
b111 *
b111 /
b111 M
b1 J
b1 R
b11 <
b11 B
b100 T
1&
#2560
0&
#2580
b100 =
b101 T
b100 <
b100 B
b10 J
b10 R
1&
#2600
0&
#2620
b101 =
b11 J
b11 R
b101 <
b101 B
b110 T
1&
#2640
0&
#2660
b110 =
b111 T
b110 <
b110 B
b100 J
b100 R
1&
#2680
0&
#2700
b111 =
01
b101 J
b101 R
b111 <
b111 B
b1000 T
1&
#2720
0&
#2740
b1001 T
0;
b1000 <
b1000 B
b110 J
b110 R
1&
#2760
0&
#2780
11
b111 J
b111 R
b0 .
b0 @
b0 F
00
b1001 <
b1001 B
b1 U
b0 T
1&
#2800
0&
#2820
b0 =
b1 T
1;
b0 <
b0 B
b1 :
b1 C
0I
b1000 J
b1000 R
b0 P
1&
#2840
0&
#2860
b1 =
b0 #
b0 *
b0 /
b0 M
b1001 J
b1001 R
b111 .
b111 @
b111 F
10
b1 <
b1 B
b10 T
1&
#2880
0&
#2900
b10 =
b11 T
b10 <
b10 B
1I
b0 J
b0 R
b1 H
b1 S
b111 P
1&
#2920
0&
#2940
b11 =
b111 #
b111 *
b111 /
b111 M
b1 J
b1 R
b11 <
b11 B
b100 T
1&
#2960
0&
#2980
b100 =
b101 T
b100 <
b100 B
b10 J
b10 R
1&
#3000
0&
#3020
b101 =
b11 J
b11 R
b101 <
b101 B
b110 T
1&
#3040
0&
#3060
b110 =
b111 T
b110 <
b110 B
b100 J
b100 R
1&
#3080
0&
#3100
b111 =
01
b101 J
b101 R
b111 <
b111 B
b1000 T
1&
#3120
0&
#3140
b1001 T
0;
b1000 <
b1000 B
b110 J
b110 R
1&
#3160
0&
#3180
11
b111 J
b111 R
b0 .
b0 @
b0 F
00
b1001 <
b1001 B
b10 U
b0 T
1&
#3200
0&
#3220
b0 =
b1 T
1;
b0 <
b0 B
b10 :
b10 C
0I
b1000 J
b1000 R
b0 P
1&
#3240
0&
#3260
b1 =
b0 #
b0 *
b0 /
b0 M
b1001 J
b1001 R
b111 .
b111 @
b111 F
10
b1 <
b1 B
b10 T
1&
#3280
0&
#3300
b10 =
b11 T
b10 <
b10 B
1I
b0 J
b0 R
b10 H
b10 S
b111 P
1&
#3320
0&
#3340
b11 =
b111 #
b111 *
b111 /
b111 M
b1 J
b1 R
b11 <
b11 B
b100 T
1&
#3360
0&
#3380
b100 =
b101 T
b100 <
b100 B
b10 J
b10 R
1&
#3400
0&
#3420
b101 =
b11 J
b11 R
b101 <
b101 B
b110 T
1&
#3440
0&
#3460
b110 =
b111 T
b110 <
b110 B
b100 J
b100 R
1&
#3480
0&
#3500
b111 =
01
b101 J
b101 R
b111 <
b111 B
b1000 T
1&
#3520
0&
#3540
b1001 T
0;
b1000 <
b1000 B
b110 J
b110 R
1&
#3560
0&
#3580
11
b111 J
b111 R
b0 .
b0 @
b0 F
00
b1001 <
b1001 B
b11 U
b0 T
1&
#3600
0&
#3620
b0 =
b1 T
1;
b0 <
b0 B
b11 :
b11 C
0I
b1000 J
b1000 R
b0 P
1&
#3640
0&
#3660
b1 =
b0 #
b0 *
b0 /
b0 M
b1001 J
b1001 R
b111 .
b111 @
b111 F
10
b1 <
b1 B
b10 T
1&
#3680
0&
#3700
b10 =
b11 T
b10 <
b10 B
1I
b0 J
b0 R
b11 H
b11 S
b111 P
1&
#3720
0&
#3740
b11 =
b111 #
b111 *
b111 /
b111 M
b1 J
b1 R
b11 <
b11 B
b100 T
1&
#3760
0&
#3780
b100 =
b101 T
b100 <
b100 B
b10 J
b10 R
1&
#3800
0&
#3820
b101 =
b11 J
b11 R
b101 <
b101 B
b110 T
1&
#3840
0&
#3860
b110 =
b111 T
b110 <
b110 B
b100 J
b100 R
1&
#3880
0&
#3900
b111 =
01
b101 J
b101 R
b111 <
b111 B
b1000 T
1&
#3920
0&
#3940
b1001 T
0;
b1000 <
b1000 B
b110 J
b110 R
1&
#3960
0&
#3980
0,
11
b111 J
b111 R
b0 .
b0 @
b0 F
00
b1001 <
b1001 B
b100 U
b0 T
1&
#4000
0&
#4020
b0 =
b1 T
1;
09
b0 <
b0 B
b100 :
b100 C
0I
b1000 J
b1000 R
b0 P
1&
#4040
0&
#4060
b1 =
b0 #
b0 *
b0 /
b0 M
b1001 J
b1001 R
10
0+
b1 <
b1 B
b10 T
1&
#4080
0&
#4100
b10 =
b11 T
b10 <
b10 B
1I
0G
b0 J
b0 R
b100 H
b100 S
1&
#4120
0&
#4140
b11 =
b1 J
b1 R
b11 <
b11 B
b100 T
1&
#4160
0&
#4180
b100 =
b101 T
b100 <
b100 B
b10 J
b10 R
1&
#4200
0&
#4220
b101 =
b11 J
b11 R
b101 <
b101 B
b110 T
1&
#4240
0&
#4260
b110 =
b111 T
b110 <
b110 B
b100 J
b100 R
1&
#4280
0&
#4300
b111 =
01
b101 J
b101 R
b111 <
b111 B
b1000 T
1&
#4320
0&
#4340
b1001 T
0;
b1000 <
b1000 B
b110 J
b110 R
1&
#4360
0&
#4380
11
b111 J
b111 R
00
b1001 <
b1001 B
b101 U
b0 T
1&
#4400
0&
#4420
b0 =
b1 T
1;
b0 <
b0 B
b101 :
b101 C
0I
b1000 J
b1000 R
1&
#4440
0&
#4460
b1 =
b1001 J
b1001 R
10
b1 <
b1 B
b10 T
1&
#4480
0&
#4500
b10 =
b11 T
b10 <
b10 B
1I
b0 J
b0 R
b101 H
b101 S
1&
#4520
0&
#4540
b11 =
b1 J
b1 R
b11 <
b11 B
b100 T
1&
#4560
0&
#4580
b100 =
b101 T
b100 <
b100 B
b10 J
b10 R
1&
#4600
0&
#4620
b101 =
b11 J
b11 R
b101 <
b101 B
b110 T
1&
#4640
0&
#4660
b110 =
b111 T
b110 <
b110 B
b100 J
b100 R
1&
#4680
0&
#4700
b111 =
01
b101 J
b101 R
b111 <
b111 B
b1000 T
1&
#4720
0&
#4740
b1001 T
0;
b1000 <
b1000 B
b110 J
b110 R
1&
#4760
0&
#4780
1A
1,
11
b111 J
b111 R
00
b1001 <
b1001 B
b0 U
b0 T
1&
#4800
0&
#4820
0A
b0 =
b1 T
1;
19
b0 :
b0 C
b0 <
b0 B
0I
b1000 J
b1000 R
1&
#4840
0&
#4860
b1 =
1Q
b1001 J
b1001 R
b111 .
b111 @
b111 F
10
1+
b1 <
b1 B
b10 T
1&
#4880
0&
#4900
b10 =
0Q
b11 T
b10 <
b10 B
1I
1G
b0 H
b0 S
b0 J
b0 R
b111 P
1&
#4920
0&
#4940
b11 =
b111 #
b111 *
b111 /
b111 M
b1 J
b1 R
b11 <
b11 B
b100 T
1&
#4960
0&
#4980
b100 =
b101 T
b100 <
b100 B
b10 J
b10 R
1&
